…
Ex.7 Make a new tibble with a subset of your data, with variables and
observations that you are interested in exploring.

I am only interested in the rates, time limits, credit card acceptance,
coordinates and locations. Therefore I dropped other variables.

``` r
ex_7 <- select(parking_meters, -c(meter_head,rate_misc,time_in_effect,time_misc,pay_phone,meter_id))
print(ex_7)
```

    ## # A tibble: 10,032 × 16
    ##    r_mf_9a_6p r_mf_6p_10 r_sa_9a_6p r_sa_6p_10 r_su_9a_6p r_su_6p_10 t_mf_9a_6p
    ##    <chr>      <chr>      <chr>      <chr>      <chr>      <chr>      <chr>     
    ##  1 $2.00      $4.00      $2.00      $4.00      $2.00      $4.00      2 Hr      
    ##  2 $1.00      $1.00      $1.00      $1.00      $1.00      $1.00      10 Hrs    
    ##  3 $1.00      $1.00      $1.00      $1.00      $1.00      $1.00      2 Hr      
    ##  4 $1.00      $1.00      $1.00      $1.00      $1.00      $1.00      2 Hr      
    ##  5 $2.00      $1.00      $2.00      $1.00      $2.00      $1.00      2 Hr      
    ##  6 $2.00      $1.00      $2.00      $1.00      $2.00      $1.00      3 Hr      
    ##  7 $2.00      $3.00      $2.00      $3.00      $2.00      $3.00      2 Hr      
    ##  8 $2.00      $3.00      $2.00      $3.00      $2.00      $3.00      2 Hr      
    ##  9 $4.00      $1.00      $4.00      $1.00      $4.00      $1.00      2 Hr      
    ## 10 $2.00      $1.00      $2.00      $1.00      $2.00      $1.00      3 Hr      
    ## # ℹ 10,022 more rows
    ## # ℹ 9 more variables: t_mf_6p_10 <chr>, t_sa_9a_6p <chr>, t_sa_6p_10 <chr>,
    ## #   t_su_9a_6p <chr>, t_su_6p_10 <chr>, credit_card <chr>, longitude <dbl>,
    ## #   latitude <dbl>, geo_local_area <chr>
…
